5장 탐색적 데이터 분석
…
플롯에서 원의 크기는 각 값의 조합에서 발생한 관측값의 수를 나타낸다. 공변동은 특정 x값과 y값 사이에 강한 상관관계로 나타날 것이다. 
    또 다른 방법은 dplyr로 빈도수를 계산하는 것이다.

diamonds %>%
  count(color, cut)

## # A tibble: 35 x 3
##    color cut           n
##    <ord> <ord>     <int>
##  1 D     Fair        163
##  2 D     Good        662
##  3 D     Very Good  1513
##  4 D     Premium    1603
##  5 D     Ideal      2834
##  6 E     Fair        224
##  7 E     Good        933
##  8 E     Very Good  2400
##  9 E     Premium    2337
## 10 E     Ideal      3903
## # ... with 25 more rows
…
